{"titleId":736744,"webtoonLevelCode":"WEBTOON","totalCount":121,"finished":true,"dailyPass":false,"chargeBestChallenge":false,"articleList":[{"no":121,"thumbnailUrl":"https://image-comic.pstatic.net/webtoon/736744/121/thumbnail_202x120_574eca9f-8038-4886-bcf4-e3099f9bb58e.jpg","subtitle":"후기","starScore":9.92078,"bgm":false,"up":false,"charge":false,"serviceDateDescription":"22.03.15","hasReadLog":false,"recentlyReadLog":false,"thumbnailClock":false,"thumbnailLock":false},{"no":120,"thumbnailUrl":"https://image-comic.pstatic.net/webtoon/736744/120/thumbnail_202x120_f99204b3-9032-4d23-bd07-5d3c868e6810.jpg","subtitle":"에필로그","starScore":9.97008,"bgm":false,"up":false,"charge":false,"serviceDateDescription":"22.03.08","hasReadLog":false,"recentlyReadLog":false,"thumbnailClock":false,"thumbnailLock":false},{"no":119,"thumbnailUrl":"https://image-comic.pstatic.net/webtoon/736744/119/thumbnail_202x120_f4eecc22-57c0-4577-8d94-78b050f143b8.jpg","subtitle":"118화","starScore":9.97027,"bgm":false,"up":false,"charge":false,"serviceDateDescription":"22.03.01","hasReadLog":false,"recentlyReadLog":false,"thumbnailClock":false,"thumbnailLock":false},{"no":118,"thumbnailUrl":"https://image-comic.pstatic.net/webtoon/736744/118/thumbnail_202x120_416484ec-f19f-4091-baac-47002a0c92bc.jpg","subtitle":"117화","starScore":9.97574,"bgm":true,"up":false,"charge":false,"serviceDateDescription":"22.02.22","hasReadLog":false,"recentlyReadLog":false,"thumbnailClock":false,"thumbnailLock":false},{"no":117,"thumbnailUrl":"https://image-comic.pstatic.net/webtoon/736744/117/thumbnail_202x120_c44256d4-f236-4bb9-a728-a6c4d21d08ec.jpg","subtitle":"116화","starScore":9.97414,"bgm":false,"up":false,"charge":false,"serviceDateDescription":"22.02.15","hasReadLog":false,"recentlyReadLog":false,"thumbnailClock":false,"thumbnailLock":false},{"no":116,"thumbnailUrl":"https://image-comic.pstatic.net/webtoon/736744/116/thumbnail_202x120_35729b89-5c9f-49fd-8edf-156afa8dd6b7.jpg","subtitle":"115화","starScore":9.96787,"bgm":false,"up":false,"charge":false,"serviceDateDescription":"22.02.08","hasReadLog":false,"recentlyReadLog":false,"thumbnailClock":false,"thumbnailLock":false},{"no":115,"thumbnailUrl":"https://image-comic.pstatic.net/webtoon/736744/115/thumbnail_202x120_3f32d299-0dce-476e-bd0c-9d27bfe831b7.jpg","subtitle":"114화","starScore":9.96005,"bgm":false,"up":false,"charge":false,"serviceDateDescription":"22.02.01","hasReadLog":false,"recentlyReadLog":false,"thumbnailClock":false,"thumbnailLock":false},{"no":114,"thumbnailUrl":"https://image-comic.pstatic.net/webtoon/736744/114/thumbnail_202x120_be1fbfcf-b3e4-4d14-a46c-6b20e9f6d27c.jpg","subtitle":"113화","starScore":9.9533,"bgm":false,"up":false,"charge":false,"serviceDateDescription":"22.01.25","hasReadLog":false,"recentlyReadLog":false,"thumbnailClock":false,"thumbnailLock":false},{"no":113,"thumbnailUrl":"https://image-comic.pstatic.net/webtoon/736744/113/thumbnail_202x120_bf7d02c7-a575-4fec-8f0b-71948a4d4abc.jpg","subtitle":"112화","starScore":9.95787,"bgm":false,"up":false,"charge":false,"serviceDateDescription":"22.01.18","hasReadLog":false,"recentlyReadLog":false,"thumbnailClock":false,"thumbnailLock":false},{"no":112,"thumbnailUrl":"https://image-comic.pstatic.net/webtoon/736744/112/thumbnail_202x120_6a6877fd-dbfd-4754-baf0-694b9f5c4d83.jpg","subtitle":"111화","starScore":9.93507,"bgm":false,"up":false,"charge":false,"serviceDateDescription":"22.01.11","hasReadLog":false,"recentlyReadLog":false,"thumbnailClock":false,"thumbnailLock":false},{"no":111,"thumbnailUrl":"https://image-comic.pstatic.net/webtoon/736744/111/thumbnail_202x120_a8b2f1be-dcea-4425-9251-009577017862.jpg","subtitle":"110화","starScore":9.91752,"bgm":false,"up":false,"charge":false,"serviceDateDescription":"22.01.04","hasReadLog":false,"recentlyReadLog":false,"thumbnailClock":false,"thumbnailLock":false},{"no":110,"thumbnailUrl":"https://image-comic.pstatic.net/webtoon/736744/110/thumbnail_202x120_647ab300-23fc-48f1-b9c8-0ca6e6fb21bb.jpg","subtitle":"109화","starScore":9.91267,"bgm":false,"up":false,"charge":false,"serviceDateDescription":"21.12.28","hasReadLog":false,"recentlyReadLog":false,"thumbnailClock":false,"thumbnailLock":false},{"no":109,"thumbnailUrl":"https://image-comic.pstatic.net/webtoon/736744/109/thumbnail_202x120_b26320a1-c5ca-4865-9813-264244563a93.jpg","subtitle":"108화","starScore":9.96763,"bgm":false,"up":false,"charge":false,"serviceDateDescription":"21.12.21","hasReadLog":false,"recentlyReadLog":false,"thumbnailClock":false,"thumbnailLock":false},{"no":108,"thumbnailUrl":"https://image-comic.pstatic.net/webtoon/736744/108/thumbnail_202x120_fe050568-219c-4e93-931d-e2435620cb00.jpg","subtitle":"107화","starScore":9.92619,"bgm":false,"up":false,"charge":false,"serviceDateDescription":"21.12.14","hasReadLog":false,"recentlyReadLog":false,"thumbnailClock":false,"thumbnailLock":false},{"no":107,"thumbnailUrl":"https://image-comic.pstatic.net/webtoon/736744/107/thumbnail_202x120_453877a9-168a-41c5-9ee5-95fb175835c1.jpg","subtitle":"106화","starScore":9.95377,"bgm":false,"up":false,"charge":false,"serviceDateDescription":"21.12.07","hasReadLog":false,"recentlyReadLog":false,"thumbnailClock":false,"thumbnailLock":false},{"no":106,"thumbnailUrl":"https://image-comic.pstatic.net/webtoon/736744/106/thumbnail_202x120_37d38ac5-6940-4f58-85cb-33c501323657.jpg","subtitle":"105화","starScore":9.95771,"bgm":false,"up":false,"charge":false,"serviceDateDescription":"21.11.30","hasReadLog":false,"recentlyReadLog":false,"thumbnailClock":false,"thumbnailLock":false},{"no":105,"thumbnailUrl":"https://image-comic.pstatic.net/webtoon/736744/105/thumbnail_202x120_fd6f3604-c8d4-4937-9d22-373d5b765e9a.jpg","subtitle":"104화","starScore":9.94147,"bgm":false,"up":false,"charge":false,"serviceDateDescription":"21.11.23","hasReadLog":false,"recentlyReadLog":false,"thumbnailClock":false,"thumbnailLock":false},{"no":104,"thumbnailUrl":"https://image-comic.pstatic.net/webtoon/736744/104/thumbnail_202x120_435768ed-ea8f-4bad-8dba-c41677402be7.jpg","subtitle":"103화","starScore":9.90238,"bgm":false,"up":false,"charge":false,"serviceDateDescription":"21.11.16","hasReadLog":false,"recentlyReadLog":false,"thumbnailClock":false,"thumbnailLock":false},{"no":103,"thumbnailUrl":"https://image-comic.pstatic.net/webtoon/736744/103/thumbnail_202x120_af251f15-3f4b-459a-addf-b9cfbf28eb58.jpg","subtitle":"102화","starScore":9.90436,"bgm":false,"up":false,"charge":false,"serviceDateDescription":"21.11.09","hasReadLog":false,"recentlyReadLog":false,"thumbnailClock":false,"thumbnailLock":false},{"no":102,"thumbnailUrl":"https://image-comic.pstatic.net/webtoon/736744/102/thumbnail_202x120_62d5c885-3a56-473f-bf4a-601c7310ee82.jpg","subtitle":"101화","starScore":9.92272,"bgm":false,"up":false,"charge":false,"serviceDateDescription":"21.11.02","hasReadLog":false,"recentlyReadLog":false,"thumbnailClock":false,"thumbnailLock":false}],"chargeFolderArticleList":[],"chargeFolderUp":false,"pageInfo":{"totalRows":121,"pageSize":20,"indexSize":10,"page":1,"rawPage":1,"endRowNum":20,"firstPage":1,"prevPage":0,"nextPage":2,"startRowNum":1,"totalPages":7,"lastPage":7},"sort":"DESC"}
